MATH2349 Semester 2, 2018
…
#Calculating the ratio of NAs for each level of education
edu_by_LGA_NA <- edu_by_LGA[!complete.cases(edu_by_LGA),]

edu_by_LGA_Totals <- edu_tidy_join %>% group_by(Ed_level) %>% summarise(PeopleSum = sum(People)) 

edu_by_LGA_ratio <- edu_by_LGA %>% mutate(ratio = paste(round(edu_by_LGA_NA$PeopleSum/edu_by_LGA_Totals$PeopleSum*100, 2), "%")) %>% select(LGA, Ed_level, ratio)

edu_by_LGA_ratio

## # A tibble: 902 x 3
## # Groups:   LGA [82]
##    LGA        Ed_level                                        ratio 
##    <chr>      <ord>                                           <chr> 
##  1 Alpine (S) Postgraduate Degree Level                       0.1 % 
##  2 Alpine (S) Graduate Diploma and Graduate Certificate Level 0.1 % 
##  3 Alpine (S) Bachelor Degree Level                           0.11 %
##  4 Alpine (S) Advanced Diploma and Diploma Level              0.1 % 
##  5 Alpine (S) Certificate III & IV Level                      0.12 %
##  6 Alpine (S) Secondary Education - Years 10 and above        0.12 %
##  7 Alpine (S) Certificate I & II Level                        1.1 % 
##  8 Alpine (S) Secondary Education - Years 9 and below         0.11 %
##  9 Alpine (S) Supplementary Codes                             0.13 %
## 10 Alpine (S) Not stated                                      0.45 %
## # ... with 892 more rows
…
